[{
	"_id": {
		"$oid": "5981293af1be6b5d0b97acab"
	},
	"updatedAt": {
		"$date": "2017-08-04T12:34:13.942Z"
	},
	"createdAt": {
		"$date": "2017-08-02T01:22:02.556Z"
	},
	"tipo": "CONSULTAS",
	"descricao": "Consultas nas áreas de cirurgia geral, digestiva e dermatologia.",
	"emailAutor": "myclin.cca@gmail.com",
	"ativo": true,
	"__v": 0
},
{
	"_id": {
		"$oid": "5981293af1be6b5d0b97acac"
	},
	"updatedAt": {
		"$date": "2017-08-02T01:22:02.568Z"
	},
	"createdAt": {
		"$date": "2017-08-02T01:22:02.568Z"
	},
	"tipo": "AVALIAÇÕES",
	"descricao": "Destinadas às pessoas que já tem a indicação médica de algum procedimento cirúrgico e necessitam de orçamento.",
	"emailAutor": "myclin.cca@gmail.com",
	"ativo": true,
	"__v": 0
},
{
	"_id": {
		"$oid": "5981293af1be6b5d0b97acaa"
	},
	"updatedAt": {
		"$date": "2017-08-04T12:35:53.430Z"
	},
	"createdAt": {
		"$date": "2017-08-02T01:22:02.554Z"
	},
	"tipo": "CIRURGIAS",
	"descricao": "Pequenas cirurgias sob anestesia local, tais como: retirada de sinais de pele, cistos epidérmicos, lipomas, cantoplastias (unha encravada), pequenos tumores de pele, biópsias, alguns procedimentos ginecológicos (colocação de DIU, cauterização de lesões de colo uterino), correções de cicatriz, queloides, túnel do carpo, postectomias, vasectomias dentre outros.",
	"emailAutor": "myclin.cca@gmail.com",
	"ativo": true,
	"__v": 0
}]

